{
    "firstname" : "Amira",
    "lastname" : "Ali",
    "mobilenumber": "01091589993",
    "password":"Admin@12",

    "adminUrl" : "https://www.ta3limy.com/",
    
    "Answer1" : "مؤسسة ڤودافون مصر لتنمية المجتمع هي أول مؤسسة لا تهدف للربح في مجال الاتصالات في مصر وهي تابعة لوزارة التضامن الاجتماعي وتختلف عن قسم المسؤولية المجتمعية الخاص بالشركة. من وقت تأسيسها في سنة 2003 والمؤسسة بتحاول جاهدة إنها تنمي المجتمع من خلال إشراك منظمات المجتمع المدني والهيئات الغير حكومية في عملية تطوير المجتمع المصري في مجالات التعليم وتمكين ذوي الاحتياجات الخاصة.",
    "Answer2" :"تعليمي هي منصة إلكترونية تعليمية مجانية للطلاب وأولياء الأمور والمعلمين",

    "Answer3" :"أولياء الأمور والطلاب في المرحلة الأولي وستستهدف المرحلة القادمة تقديم محتوى للمعلمين",
    "Answer4" :"لأولياء الأمور يوجد:",
    "Answer5" :"تعليمي مجاني لجميع الأفراد بشكل عام ويتميز عملاء ڤودافون بعدم السحب من باقة الانترنت بشكل خاص",
    "Answer6" :"في حال لم يكن لديك حساب:",
    "Answer7" :"يتم تحديد الأشخاص الموجودين بلوحة المتصدرين على منصة تعليمي عن طريق الطرق التالية"
   
}